{
  "e173doc": {
    "libraries": {
      "org.esta.lib.test": {
        "1": {
          "@description": "test_description",
          "publishDate": "2024-07-14T10:46:00Z",
          "author": "ESTA"
        }
      }
    }
  },
  "$schema": "https://gitlab.com/esta-cpwg/e173/-/raw/main/schemas/draft-2024-1/full/udr-document.json"
}
